Consultant Schedule
2017-12-27 15:45:00.0, 2017-12-27 16:00:00.0, Sales, Yoe Blow, 76546
2017-12-28 13:00:00.0, 2017-12-28 13:15:00.0, Sales, Yoe Blow, 76546
2017-12-31 12:15:00.0, 2017-12-31 12:30:00.0, Sales, Torkscrew, 6542
2018-01-03 08:00:00.0, 2018-01-03 08:15:00.0, Follow Up, Yoe Blow, 76546
2018-01-04 08:45:00.0, 2018-01-04 09:00:00.0, Follow Up, Yoe Blow, 76546
2018-01-04 10:00:00.0, 2018-01-04 10:30:00.0, Contract Close, Yoe Blow, 76546
2018-01-05 08:00:00.0, 2018-01-05 08:15:00.0, Sales, Yoe Blow, 76546
2018-01-06 12:00:00.0, 2018-01-06 12:30:00.0, Follow Up, Yoe Blow, 76546
2018-01-08 15:15:00.0, 2018-01-08 15:30:00.0, Sales, Yoe Blow, 76546
2018-01-22 11:00:00.0, 2018-01-22 11:15:00.0, Sales, Abcd, 859
2018-01-24 13:00:00.0, 2018-01-24 12:00:00.0, Follow Up, Abcd, 859
2018-01-27 13:00:00.0, 2018-01-27 13:15:00.0, Sales, Abcd, 859
2018-01-27 14:00:00.0, 2018-01-27 14:15:00.0, Sales, Abcd, 859
2018-01-27 15:00:00.0, 2018-01-27 15:15:00.0, Sales, Torkscrew, 6542
2018-01-29 12:45:00.0, 2018-01-29 13:00:00.0, Follow Up, Yoe Blow, 76546
2018-01-31 12:00:00.0, 2018-01-31 12:30:00.0, Sales, Torkscrew, 6542
2018-02-01 12:00:00.0, 2018-02-01 12:15:00.0, Sales, Yoe Blow, 76546
2018-02-02 12:00:00.0, 2018-02-02 12:15:00.0, Follow Up, Torkscrew, 6542
2018-02-04 12:45:00.0, 2018-02-04 13:15:00.0, Customer Support, Yoe Blow, 76546
2018-02-07 12:00:00.0, 2018-02-07 12:15:00.0, Sales, Yoe Blow, 76546
2018-02-08 08:15:00.0, 2018-02-08 08:30:00.0, Sales, Torkscrew, 6542
2018-02-10 12:00:00.0, 2018-02-10 12:15:00.0, Sales, Abcd, 859
2018-03-05 08:00:00.0, 2018-03-05 08:15:00.0, Sales, QuickSilver, 7890
